…
dat <- read_data(path)
dat <- add_group(dat, "group")
dat <- complete_data(dat, "limit", "limit", "limit")
#> Completing 109 < LOD values...
#> Completing 6 < LLOQ values...
#> Completing 9 < ULOQ values...
models <- build_models(dat, "group", "2")
#> Warning: SLOPE regularization cannot be performed -
#>                   using ridge regression instead
#> Warning: Option grouped=FALSE enforced in cv.glmnet, since < 3 observations per fold
#> Warning: glm.fit: fitted probabilities numerically 0 or 1 occurred
get_models_info(models)
#> $data
#> $data$full
#> # A tibble: 25 × 14
#>    group_2    C0    C2    C3 `C3-DC (C4-OH)` `C3-OH` `C3:1`    C4    C5 .fitted
#>    <fct>   <dbl> <dbl> <dbl>           <dbl>   <dbl>  <dbl> <dbl> <dbl>   <dbl>
#>  1 1        45.1  5.28 0.352            0.17   0.019  0.019 0.217 0.157   0.499
#>  2 1        46.2  7.88 0.495            0.17   0.019  0.015 0.248 0.231   0.241
#>  3 1        43.3 13    0.457            0.17   0.019 10     0.378 0.174   1.000
#>  4 1        30.1 10.5  0.191            0.17   0.019 10     0.107 0.087   1.000
#>  5 1        31.5 11.3  0.243            0.17   0.019 10     0.161 0.087   1.000
#>  6 1        38.6  6.87 0.285            0.17   0.019 10     0.107 0.105   1.000
#>  7 1        46.3 14    0.491            0.17   0.019 10     0.283 0.191   1.000
#>  8 1        41.8  9.3  0.289            0.17   0.019  0.019 0.187 0.203   0.297
#>  9 1        52    9.55 0.544            0.17   0.019  0.019 0.322 0.182   0.478
#> 10 1        23.4  5.31 0.181            0.17   0.019  0.019 0.246 0.109   0.283
#> # ℹ 15 more rows
#> # ℹ 4 more variables: .resid <dbl>, .hat <dbl>, .cooksd <dbl>, .std.resid <dbl>
…
